[
    {
      "tag" : "SED",
      "type": "ถังตะตกกอน"
    },
    {
      "tag" : "FIL",
      "type": "โรงกรองน้ำ"
    },
    {
      "tag" : "CHEM",
      "type": "โรงจ่ายสารเคมี"
    },
    {
      "tag" : "RWP",
      "type": "โรงสูบน้ำแรงต่ำ"
    },
    {
      "tag" : "HSP",
      "type": "โรงสูบน้ำแรงสูง"
    },
    {
      "tag" : "DPB",
      "type": "สถานีจ่ายน้ำ"
    },
    {
      "tag" : "BOOSTER",
      "type": "สถานีเพิ่มแรงดัน"
    },
    {
      "tag" : "MB",
      "type": "สถานี Moblie Plant"
    },
    {
      "tag" : "POINT",
      "type": "จุดติดตั้ง (นอกสถานี)"
    }
  ]